…
    ## -- Conflicts ------------------------------------------ tidyverse_conflicts() --
    ## x dplyr::filter() masks stats::filter()
    ## x dplyr::lag()    masks stats::lag()

``` r
library(readxl)

readxl::read_excel(
  "Data/doi_10.5061_dryad.2n8055g__v1 (2)/Jessop_data.xlsx")
```

    ## New names:
    ## * `` -> ...4

    ## # A tibble: 2,921 x 5
    ##    DragonID Weight `daily move(m)` ...4  Summary                                
    ##    <chr>     <dbl>           <dbl> <lgl> <chr>                                  
    ##  1 64D4C0E    0.09            12.6 NA    Daily movement distance (metres) calcu~
    ##  2 64D4C0E    0.09            25.8 NA    <NA>                                   
    ##  3 64D4C0E    0.09            29.2 NA    <NA>                                   
    ##  4 64D4C0E    0.09            37.8 NA    <NA>                                   
    ##  5 64D4C0E    0.09            57.6 NA    <NA>                                   
    ##  6 64D4C0E    0.09            58.0 NA    <NA>                                   
    ##  7 64D4C0E    0.09            59.6 NA    <NA>                                   
    ##  8 64D4C0E    0.09            77.3 NA    <NA>                                   
    ##  9 64D4C0E    0.09           119.  NA    <NA>                                   
    ## 10 64D4C0E    0.09           144.  NA    <NA>                                   
    ## # ... with 2,911 more rows
